C:\Users\Grzegorz\Desktop\Nowy folder\wypozyczalnia_samochodowa\src\main\java\pl\rentacar\controller\rental\RentalController.java
C:\Users\Grzegorz\Desktop\Nowy folder\wypozyczalnia_samochodowa\src\main\java\pl\rentacar\Main.java
C:\Users\Grzegorz\Desktop\Nowy folder\wypozyczalnia_samochodowa\src\main\java\pl\rentacar\controller\customer\CustomerViewController.java
C:\Users\Grzegorz\Desktop\Nowy folder\wypozyczalnia_samochodowa\src\main\java\pl\rentacar\controller\employee\AdminController.java
C:\Users\Grzegorz\Desktop\Nowy folder\wypozyczalnia_samochodowa\src\main\java\pl\rentacar\controller\customer\CustomersController.java
C:\Users\Grzegorz\Desktop\Nowy folder\wypozyczalnia_samochodowa\src\main\java\pl\rentacar\view\SimpleDialogs.java
C:\Users\Grzegorz\Desktop\Nowy folder\wypozyczalnia_samochodowa\src\main\java\pl\rentacar\controller\car\CarAddEditController.java
C:\Users\Grzegorz\Desktop\Nowy folder\wypozyczalnia_samochodowa\src\main\java\pl\rentacar\controller\auth\LoginController.java
C:\Users\Grzegorz\Desktop\Nowy folder\wypozyczalnia_samochodowa\src\main\java\pl\rentacar\controller\auth\RegisterController.java
C:\Users\Grzegorz\Desktop\Nowy folder\wypozyczalnia_samochodowa\src\main\java\pl\rentacar\service\RentService.java
C:\Users\Grzegorz\Desktop\Nowy folder\wypozyczalnia_samochodowa\src\main\java\pl\rentacar\service\EmployeeService.java
C:\Users\Grzegorz\Desktop\Nowy folder\wypozyczalnia_samochodowa\src\main\java\pl\rentacar\controller\rent\RentsController.java
C:\Users\Grzegorz\Desktop\Nowy folder\wypozyczalnia_samochodowa\src\main\java\pl\rentacar\tools\PasswordEncryptor.java
C:\Users\Grzegorz\Desktop\Nowy folder\wypozyczalnia_samochodowa\src\main\java\pl\rentacar\view\ViewManager.java
C:\Users\Grzegorz\Desktop\Nowy folder\wypozyczalnia_samochodowa\src\main\java\pl\rentacar\controller\employee\SuperAdminController.java
C:\Users\Grzegorz\Desktop\Nowy folder\wypozyczalnia_samochodowa\src\main\java\pl\rentacar\controller\rental\RentalAddEditController.java
C:\Users\Grzegorz\Desktop\Nowy folder\wypozyczalnia_samochodowa\src\main\java\pl\rentacar\service\RentalService.java
C:\Users\Grzegorz\Desktop\Nowy folder\wypozyczalnia_samochodowa\src\main\java\pl\rentacar\controller\car\CarViewController.java
C:\Users\Grzegorz\Desktop\Nowy folder\wypozyczalnia_samochodowa\src\main\java\pl\rentacar\model\Customer.java
C:\Users\Grzegorz\Desktop\Nowy folder\wypozyczalnia_samochodowa\src\main\java\pl\rentacar\App.java
C:\Users\Grzegorz\Desktop\Nowy folder\wypozyczalnia_samochodowa\src\main\java\pl\rentacar\service\CarService.java
C:\Users\Grzegorz\Desktop\Nowy folder\wypozyczalnia_samochodowa\src\main\java\pl\rentacar\controller\car\CarsController.java
C:\Users\Grzegorz\Desktop\Nowy folder\wypozyczalnia_samochodowa\src\main\java\pl\rentacar\controller\rental\RentalViewController.java
C:\Users\Grzegorz\Desktop\Nowy folder\wypozyczalnia_samochodowa\src\main\java\pl\rentacar\controller\employee\EmployeeController.java
C:\Users\Grzegorz\Desktop\Nowy folder\wypozyczalnia_samochodowa\src\main\java\pl\rentacar\controller\rent\RentAddEditController.java
C:\Users\Grzegorz\Desktop\Nowy folder\wypozyczalnia_samochodowa\src\main\java\pl\rentacar\controller\rent\RentViewController.java
C:\Users\Grzegorz\Desktop\Nowy folder\wypozyczalnia_samochodowa\src\main\java\pl\rentacar\model\Employee.java
C:\Users\Grzegorz\Desktop\Nowy folder\wypozyczalnia_samochodowa\src\main\java\pl\rentacar\service\CustomerService.java
C:\Users\Grzegorz\Desktop\Nowy folder\wypozyczalnia_samochodowa\src\main\java\pl\rentacar\model\Car.java
C:\Users\Grzegorz\Desktop\Nowy folder\wypozyczalnia_samochodowa\src\main\java\pl\rentacar\tools\Db.java
C:\Users\Grzegorz\Desktop\Nowy folder\wypozyczalnia_samochodowa\src\main\java\pl\rentacar\controller\customer\CustomerAddEditController.java
C:\Users\Grzegorz\Desktop\Nowy folder\wypozyczalnia_samochodowa\src\main\java\pl\rentacar\State.java
C:\Users\Grzegorz\Desktop\Nowy folder\wypozyczalnia_samochodowa\src\main\java\pl\rentacar\controller\employee\EmployeesController.java
C:\Users\Grzegorz\Desktop\Nowy folder\wypozyczalnia_samochodowa\src\main\java\pl\rentacar\model\Rent.java
C:\Users\Grzegorz\Desktop\Nowy folder\wypozyczalnia_samochodowa\src\main\java\pl\rentacar\Config.java
C:\Users\Grzegorz\Desktop\Nowy folder\wypozyczalnia_samochodowa\src\main\java\pl\rentacar\model\Rental.java
